{
    "name": "acf/text-cards",
    "title": "Text Cards",
    "description": "Text Cards",
    "category": "theme",
    "icon": "admin-comments",
    "apiVersion": 2,
    "keywords": [],
    "acf": {
        "mode": "edit",
        "renderTemplate": "render.php"
    },
    "styles": [
        { "name": "default", "label": "Default", "isDefault": true },
        { "name": "nobg", "label": "No Background"}
    ],
    "supports": {
        "anchor": true,
        "color": {},
        "alignText": true,
        "spacing": {},
        "typography": {},
        "fullHeight": true
    },
    "style": [ "file:./style.min.css", "block-style" ]
}