<svg xmlns="http://www.w3.org/2000/svg" xmlns:xlink="http://www.w3.org/1999/xlink" width="375" height="343" viewBox="0 0 375 343">
  <defs>
    <clipPath id="clip-path">
      <rect id="Rectangle_148185" data-name="Rectangle 148185" width="375" height="343" transform="translate(1545 2734)" fill="#fff"/>
    </clipPath>
  </defs>
  <g id="Block_3_Background_vector_7" data-name="Block 3 Background vector 7" transform="translate(-1545 -2734)" clip-path="url(#clip-path)">
    <path id="_49" data-name="49" d="M495.044,417.612c-21.412-27.79-68.336-20.045-98.632-22.323-21.412-1.595-43.735-5.467-61.731-17.767C317.6,365.676,307.119,346.77,303.246,326.5,285.707,231.965,387.755,176.84,440.6,116.7c20.956-23.918,51.48-65.147,27.79-96.81C443.336-13.59,395.5,2.355,364.066,15.339,285.251,48.6,219.648,106,143.567,144.039a426.088,426.088,0,0,1-61.731,24.829c-19.362,6.378-39.407,12.756-55.808,25.512C2.794,212.831-12.012,251.1,12.817,274.561c26.423,24.829,65.6,11.162,90.432-7.973,18.451-14.351,35.079-30.979,52.391-46.924C174.318,202.58,193,185.5,211.448,168.412c38.5-35.535,80.637-69.475,127.333-93.165,10.934-5.467,33.485-21.412,43.508-7.745,10.934,14.578-3.189,42.141-10.478,55.808-8.884,16.4-20.5,30.979-33.029,44.874-23.462,25.968-50.113,49.2-71.3,77.22-21.64,28.7-34.852,61.958-35.307,98.177-.911,73.576,46.7,138.951,118.222,157.629,34.4,8.884,71.981,7.061,104.782-7.061C482.971,482.531,519.872,449.73,495.044,417.612Zm-50.569,73.8c-34.624,12.3-73.348,11.389-107.744-1.367C263.839,462.942,224.659,382.3,244.021,307.59c17.54-67.653,81.776-106.377,120.955-160.135,9.112-12.528,16.856-25.968,22.1-40.546,4.328-12.073,8.884-27.107,3.189-39.635C383.883,53.379,369.3,54.062,357,59.3c-20.956,8.656-41.457,19.818-60.592,31.89-51.48,32.346-94.3,76.992-138.951,117.994-16.629,15.262-33.029,30.979-50.113,45.785C91.176,268.639,72.269,281.395,50.4,281.623c-20.729,0-41.685-12.073-43.28-34.4-1.594-21.184,12.073-40.318,28.7-51.252,17.312-11.389,37.585-16.856,56.947-23.234a406.848,406.848,0,0,0,52.619-21.868C216.459,115.565,277.962,63.4,349.715,29.461c19.134-9.112,39.863-18.223,61.047-21.64,22.323-3.645,51.024,2.961,57.858,27.79,6.15,22.1-8.428,45.33-21.184,62.186-12.984,17.084-28.246,32.346-44.191,46.924-51.024,46.924-118.678,100.91-107.288,179.041,4.784,32.574,24.829,59,56.036,70.386,35.763,12.984,74.031,4.1,110.249,12.756,21.184,5.011,38.952,20.045,31.663,43.963C487.527,472.053,464.064,484.354,444.475,491.415Z" transform="matrix(-0.545, -0.839, 0.839, -0.545, 1801.135, 3410.134)" fill="#306f5e" opacity="0.697"/>
  </g>
</svg>
