<svg xmlns="http://www.w3.org/2000/svg" width="531.141" height="531.644" viewBox="0 0 531.141 531.644">
  <path id="Block_2_Background_vector_4" data-name="Block 2 Background vector 4" d="M371.959,313.775C355.87,292.893,320.612,298.713,297.848,297c-16.089-1.2-32.862-4.108-46.384-13.35-12.837-8.9-20.71-23.106-23.62-38.339-13.179-71.03,63.5-112.451,103.208-157.636C346.8,69.7,369.734,38.724,351.934,14.933c-18.827-25.16-54.77-13.179-78.39-3.423C214.323,36.5,165.03,79.631,107.863,108.214a320.158,320.158,0,0,1-46.384,18.656c-14.548,4.792-29.61,9.585-41.934,19.17C2.088,159.9-9.038,188.658,9.619,206.288c19.854,18.656,49.293,8.387,67.95-5.991,13.864-10.783,26.358-23.277,39.366-35.258,14.035-12.837,28.07-25.674,41.934-38.51,28.926-26.7,60.59-52.2,95.677-70,8.216-4.108,25.16-16.089,32.691-5.819,8.216,10.954-2.4,31.664-7.873,41.934-6.675,12.323-15.4,23.277-24.818,33.718-17.629,19.512-37.655,36.97-53.572,58.022-16.26,21.566-26.187,46.555-26.529,73.769-.685,55.284,35.087,104.406,88.831,118.441,25.845,6.675,54.086,5.306,78.733-5.306C362.888,362.555,390.615,337.908,371.959,313.775Zm-38,55.455c-26.016,9.243-55.113,8.558-80.958-1.027-54.77-20.368-84.21-80.958-69.661-137.1,13.179-50.834,61.446-79.931,90.885-120.324a122.509,122.509,0,0,0,16.6-30.466c3.252-9.071,6.675-20.368,2.4-29.781-4.792-10.441-15.746-9.927-24.989-5.991A303.788,303.788,0,0,0,222.71,68.506c-38.682,24.3-70.859,57.851-104.406,88.66-12.494,11.468-24.818,23.277-37.655,34.4C68.5,201.838,54.291,211.422,37.86,211.594c-15.575,0-31.322-9.071-32.52-25.845-1.2-15.918,9.071-30.295,21.566-38.51,13.008-8.558,28.241-12.666,42.789-17.458a305.7,305.7,0,0,0,39.537-16.431c53.4-26.529,99.614-65.725,153.528-91.227,14.377-6.846,29.953-13.693,45.87-16.26C325.4,3.124,346.97,8.087,352.1,26.743c4.621,16.6-6.333,34.06-15.918,46.726-9.756,12.837-21.224,24.3-33.2,35.258-38.339,35.258-89.173,75.823-80.615,134.53,3.594,24.476,18.656,44.33,42.1,52.888,26.872,9.756,55.626,3.081,82.84,9.585,15.918,3.765,29.268,15.062,23.791,33.033C366.311,354.681,348.682,363.924,333.962,369.23Z" transform="matrix(-0.799, -0.602, 0.602, -0.799, 302.015, 531.568)" fill="#95cdcd" opacity="0.697"/>
</svg>
